{
  "build": {
    "beforeBuildCommand": "cargo build -r -p spa --target wasm32-unknown-unknown && cargo run -p xtask -- pack spa",
    "beforeDevCommand": "cargo build -p spa --target wasm32-unknown-unknown && cargo run -p xtask -- devel spa",
    "devPath": "../target/wasm32-unknown-unknown/debug/",
    "distDir": "../target/dist/"
  },
  "package": {
    "productName": "gui",
    "version": "0.1.0"
  },
  "tauri": {
    "allowlist": {
      "all": false
    },
    "bundle": {
      "active": true,
      "category": "DeveloperTool",
      "copyright": "",
      "deb": {
        "depends": []
      },
      "externalBin": [],
      "icon": [
        "icons/icon.ico"
      ],
      "identifier": "net.clxa.app.example.oh.no",
      "longDescription": "",
      "macOS": {
        "entitlements": null,
        "exceptionDomain": "",
        "frameworks": [],
        "providerShortName": null,
        "signingIdentity": null
      },
      "resources": [],
      "shortDescription": "",
      "targets": "all",
      "windows": {
        "certificateThumbprint": null,
        "digestAlgorithm": "sha256",
        "timestampUrl": ""
      }
    },
    "security": {
      "csp": null
    },
    "updater": {
      "active": false
    },
    "windows": [
      {
        "fullscreen": false,
        "height": 600,
        "resizable": true,
        "title": "oh no! the example for yew+tauri, by clxa.net",
        "width": 800
      }
    ]
  }
}